{
	"count": 197565,
	"message": null,
	"nextPage": "http://api.govinfo.gov/collections/BILLS/2018-04-03T00:00:00Z/2018-04-03T23:59:59Z?offset=300&pageSize=150",
	"previousPage": "http://api.govinfo.gov/collections/BILLS/2018-04-03T00:00:00Z/2018-04-03T23:59:59Z?offset=0&pageSize=150",
	"packages": [{
			"packageId": "BILLS-115hres765ih",
			"lastModified": "2018-04-03T11:25:34Z",
			"packageLink": "http://api.govinfo.gov/packages/BILLS-115hres765ih/summary"
		}, {
			"packageId": "BILLS-115s2501is",
			"lastModified": "2018-04-03T11:37:02Z",
			"packageLink": "http://api.govinfo.gov/packages/BILLS-115s2501is/summary"
		}, {
			"packageId": "BILLS-115hr4646rfs",
			"lastModified": "2018-04-03T11:42:30Z",
			"packageLink": "http://api.govinfo.gov/packages/BILLS-115hr4646rfs/summary"
		}, {
			"packageId": "BILLS-115hr5172ih",
			"lastModified": "2018-04-03T11:31:25Z",
			"packageLink": "http://api.govinfo.gov/packages/BILLS-115hr5172ih/summary"
		}, {
			"packageId": "BILLS-115hr2673eh",
			"lastModified": "2018-04-03T11:09:17Z",
			"packageLink": "http://api.govinfo.gov/packages/BILLS-115hr2673eh/summary"
		}, {
			"packageId": "BILLS-115s2494is",
			"lastModified": "2018-04-03T11:39:57Z",
			"packageLink": "http://api.govinfo.gov/packages/BILLS-115s2494is/summary"
		}, {
			"packageId": "BILLS-115hr5162ih",
			"lastModified": "2018-04-03T11:19:46Z",
			"packageLink": "http://api.govinfo.gov/packages/BILLS-115hr5162ih/summary"
		}, {
			"packageId": "BILLS-115hr5155ih",
			"lastModified": "2018-04-03T11:14:13Z",
			"packageLink": "http://api.govinfo.gov/packages/BILLS-115hr5155ih/summary"
		}, {
			"packageId": "BILLS-115s2372rfh",
			"lastModified": "2018-04-03T11:41:27Z",
			"packageLink": "http://api.govinfo.gov/packages/BILLS-115s2372rfh/summary"
		}, {
			"packageId": "BILLS-115sres422ats",
			"lastModified": "2018-04-03T11:09:34Z",
			"packageLink": "http://api.govinfo.gov/packages/BILLS-115sres422ats/summary"
		}, {
			"packageId": "BILLS-115hr5152ih",
			"lastModified": "2018-04-03T11:31:53Z",
			"packageLink": "http://api.govinfo.gov/packages/BILLS-115hr5152ih/summary"
		}, {
			"packageId": "BILLS-115hr5139ih",
			"lastModified": "2018-04-03T11:37:29Z",
			"packageLink": "http://api.govinfo.gov/packages/BILLS-115hr5139ih/summary"
		}, {
			"packageId": "BILLS-115hr5144ih",
			"lastModified": "2018-04-03T11:25:24Z",
			"packageLink": "http://api.govinfo.gov/packages/BILLS-115hr5144ih/summary"
		}, {
			"packageId": "BILLS-115hr5141ih",
			"lastModified": "2018-04-03T11:15:00Z",
			"packageLink": "http://api.govinfo.gov/packages/BILLS-115hr5141ih/summary"
		}, {
			"packageId": "BILLS-115hr5143ih",
			"lastModified": "2018-04-03T11:28:31Z",
			"packageLink": "http://api.govinfo.gov/packages/BILLS-115hr5143ih/summary"
		}, {
			"packageId": "BILLS-115sjres53es",
			"lastModified": "2018-04-03T11:31:29Z",
			"packageLink": "http://api.govinfo.gov/packages/BILLS-115sjres53es/summary"
		}, {
			"packageId": "BILLS-115s2464pcs",
			"lastModified": "2018-04-03T11:14:54Z",
			"packageLink": "http://api.govinfo.gov/packages/BILLS-115s2464pcs/summary"
		}, {
			"packageId": "BILLS-115s2474is",
			"lastModified": "2018-04-03T11:14:42Z",
			"packageLink": "http://api.govinfo.gov/packages/BILLS-115s2474is/summary"
		}, {
			"packageId": "BILLS-115hr5153ih",
			"lastModified": "2018-04-03T11:10:23Z",
			"packageLink": "http://api.govinfo.gov/packages/BILLS-115hr5153ih/summary"
		}, {
			"packageId": "BILLS-115sres419ats",
			"lastModified": "2018-04-03T11:28:30Z",
			"packageLink": "http://api.govinfo.gov/packages/BILLS-115sres419ats/summary"
		}, {
			"packageId": "BILLS-115hr5145ih",
			"lastModified": "2018-04-03T11:21:00Z",
			"packageLink": "http://api.govinfo.gov/packages/BILLS-115hr5145ih/summary"
		}, {
			"packageId": "BILLS-115s2484is",
			"lastModified": "2018-04-03T11:36:02Z",
			"packageLink": "http://api.govinfo.gov/packages/BILLS-115s2484is/summary"
		}, {
			"packageId": "BILLS-115s2248es",
			"lastModified": "2018-04-03T11:38:10Z",
			"packageLink": "http://api.govinfo.gov/packages/BILLS-115s2248es/summary"
		}, {
			"packageId": "BILLS-115s2489is",
			"lastModified": "2018-04-03T11:42:11Z",
			"packageLink": "http://api.govinfo.gov/packages/BILLS-115s2489is/summary"
		}, {
			"packageId": "BILLS-115s2485is",
			"lastModified": "2018-04-03T11:31:32Z",
			"packageLink": "http://api.govinfo.gov/packages/BILLS-115s2485is/summary"
		}, {
			"packageId": "BILLS-115hr5149ih",
			"lastModified": "2018-04-03T11:43:38Z",
			"packageLink": "http://api.govinfo.gov/packages/BILLS-115hr5149ih/summary"
		}, {
			"packageId": "BILLS-115hres759eh",
			"lastModified": "2018-04-03T11:42:07Z",
			"packageLink": "http://api.govinfo.gov/packages/BILLS-115hres759eh/summary"
		}, {
			"packageId": "BILLS-115hr5102ih",
			"lastModified": "2018-04-03T11:11:40Z",
			"packageLink": "http://api.govinfo.gov/packages/BILLS-115hr5102ih/summary"
		}, {
			"packageId": "BILLS-115s2458is",
			"lastModified": "2018-04-03T11:47:25Z",
			"packageLink": "http://api.govinfo.gov/packages/BILLS-115s2458is/summary"
		}, {
			"packageId": "BILLS-115hres752ih",
			"lastModified": "2018-04-03T11:45:57Z",
			"packageLink": "http://api.govinfo.gov/packages/BILLS-115hres752ih/summary"
		}, {
			"packageId": "BILLS-115hr146rh",
			"lastModified": "2018-04-03T11:39:55Z",
			"packageLink": "http://api.govinfo.gov/packages/BILLS-115hr146rh/summary"
		}, {
			"packageId": "BILLS-115hres758ih",
			"lastModified": "2018-04-03T11:35:54Z",
			"packageLink": "http://api.govinfo.gov/packages/BILLS-115hres758ih/summary"
		}, {
			"packageId": "BILLS-115s2463is",
			"lastModified": "2018-04-03T11:25:00Z",
			"packageLink": "http://api.govinfo.gov/packages/BILLS-115s2463is/summary"
		}, {
			"packageId": "BILLS-115hr5127ih",
			"lastModified": "2018-04-03T11:24:34Z",
			"packageLink": "http://api.govinfo.gov/packages/BILLS-115hr5127ih/summary"
		}, {
			"packageId": "BILLS-115hr5131ih",
			"lastModified": "2018-04-03T11:27:59Z",
			"packageLink": "http://api.govinfo.gov/packages/BILLS-115hr5131ih/summary"
		}, {
			"packageId": "BILLS-115hr5120ih",
			"lastModified": "2018-04-03T11:27:37Z",
			"packageLink": "http://api.govinfo.gov/packages/BILLS-115hr5120ih/summary"
		}, {
			"packageId": "BILLS-115sjres52is",
			"lastModified": "2018-04-03T11:20:21Z",
			"packageLink": "http://api.govinfo.gov/packages/BILLS-115sjres52is/summary"
		}, {
			"packageId": "BILLS-115hr5101ih",
			"lastModified": "2018-04-03T11:14:58Z",
			"packageLink": "http://api.govinfo.gov/packages/BILLS-115hr5101ih/summary"
		}, {
			"packageId": "BILLS-115s2467is",
			"lastModified": "2018-04-03T11:20:18Z",
			"packageLink": "http://api.govinfo.gov/packages/BILLS-115s2467is/summary"
		}, {
			"packageId": "BILLS-115sjres54is",
			"lastModified": "2018-04-03T11:34:31Z",
			"packageLink": "http://api.govinfo.gov/packages/BILLS-115sjres54is/summary"
		}, {
			"packageId": "BILLS-115hr767eh",
			"lastModified": "2018-04-03T11:10:27Z",
			"packageLink": "http://api.govinfo.gov/packages/BILLS-115hr767eh/summary"
		}, {
			"packageId": "BILLS-115hr5091ih",
			"lastModified": "2018-04-03T11:07:22Z",
			"packageLink": "http://api.govinfo.gov/packages/BILLS-115hr5091ih/summary"
		}, {
			"packageId": "BILLS-115s1884rs",
			"lastModified": "2018-04-03T11:27:34Z",
			"packageLink": "http://api.govinfo.gov/packages/BILLS-115s1884rs/summary"
		}, {
			"packageId": "BILLS-115hres443eh",
			"lastModified": "2018-04-03T11:20:15Z",
			"packageLink": "http://api.govinfo.gov/packages/BILLS-115hres443eh/summary"
		}, {
			"packageId": "BILLS-115hr5122ih",
			"lastModified": "2018-04-03T11:09:04Z",
			"packageLink": "http://api.govinfo.gov/packages/BILLS-115hr5122ih/summary"
		}, {
			"packageId": "BILLS-115hr5099ih",
			"lastModified": "2018-04-03T11:07:24Z",
			"packageLink": "http://api.govinfo.gov/packages/BILLS-115hr5099ih/summary"
		}, {
			"packageId": "BILLS-115hres754ih",
			"lastModified": "2018-04-03T11:40:22Z",
			"packageLink": "http://api.govinfo.gov/packages/BILLS-115hres754ih/summary"
		}, {
			"packageId": "BILLS-115hr5103ih",
			"lastModified": "2018-04-03T11:39:35Z",
			"packageLink": "http://api.govinfo.gov/packages/BILLS-115hr5103ih/summary"
		}, {
			"packageId": "BILLS-115sres414is",
			"lastModified": "2018-04-03T11:15:35Z",
			"packageLink": "http://api.govinfo.gov/packages/BILLS-115sres414is/summary"
		}, {
			"packageId": "BILLS-115sconres35ats",
			"lastModified": "2018-04-03T11:21:45Z",
			"packageLink": "http://api.govinfo.gov/packages/BILLS-115sconres35ats/summary"
		}, {
			"packageId": "BILLS-115s2454is",
			"lastModified": "2018-04-03T11:30:34Z",
			"packageLink": "http://api.govinfo.gov/packages/BILLS-115s2454is/summary"
		}, {
			"packageId": "BILLS-115sconres35es",
			"lastModified": "2018-04-03T11:30:12Z",
			"packageLink": "http://api.govinfo.gov/packages/BILLS-115sconres35es/summary"
		}, {
			"packageId": "BILLS-115hres753ih",
			"lastModified": "2018-04-03T11:35:47Z",
			"packageLink": "http://api.govinfo.gov/packages/BILLS-115hres753ih/summary"
		}, {
			"packageId": "BILLS-115s2460is",
			"lastModified": "2018-04-03T11:34:38Z",
			"packageLink": "http://api.govinfo.gov/packages/BILLS-115s2460is/summary"
		}, {
			"packageId": "BILLS-115hres750ih",
			"lastModified": "2018-04-03T11:39:23Z",
			"packageLink": "http://api.govinfo.gov/packages/BILLS-115hres750ih/summary"
		}, {
			"packageId": "BILLS-115hr5095ih",
			"lastModified": "2018-04-03T11:39:52Z",
			"packageLink": "http://api.govinfo.gov/packages/BILLS-115hr5095ih/summary"
		}, {
			"packageId": "BILLS-115hres751ih",
			"lastModified": "2018-04-03T11:27:25Z",
			"packageLink": "http://api.govinfo.gov/packages/BILLS-115hres751ih/summary"
		}, {
			"packageId": "BILLS-115hr5085ih",
			"lastModified": "2018-04-03T11:22:37Z",
			"packageLink": "http://api.govinfo.gov/packages/BILLS-115hr5085ih/summary"
		}, {
			"packageId": "BILLS-115hr5096ih",
			"lastModified": "2018-04-03T11:26:27Z",
			"packageLink": "http://api.govinfo.gov/packages/BILLS-115hr5096ih/summary"
		}, {
			"packageId": "BILLS-115hres748rh",
			"lastModified": "2018-04-03T11:32:13Z",
			"packageLink": "http://api.govinfo.gov/packages/BILLS-115hres748rh/summary"
		}, {
			"packageId": "BILLS-115hr5092ih",
			"lastModified": "2018-04-03T11:46:46Z",
			"packageLink": "http://api.govinfo.gov/packages/BILLS-115hr5092ih/summary"
		}, {
			"packageId": "BILLS-115hr5089ih",
			"lastModified": "2018-04-03T11:43:45Z",
			"packageLink": "http://api.govinfo.gov/packages/BILLS-115hr5089ih/summary"
		}, {
			"packageId": "BILLS-115hr5080ih",
			"lastModified": "2018-04-03T11:09:18Z",
			"packageLink": "http://api.govinfo.gov/packages/BILLS-115hr5080ih/summary"
		}, {
			"packageId": "BILLS-115hr5084ih",
			"lastModified": "2018-04-03T11:46:36Z",
			"packageLink": "http://api.govinfo.gov/packages/BILLS-115hr5084ih/summary"
		}, {
			"packageId": "BILLS-115hconres107eh",
			"lastModified": "2018-04-03T11:35:13Z",
			"packageLink": "http://api.govinfo.gov/packages/BILLS-115hconres107eh/summary"
		}, {
			"packageId": "BILLS-115hr5083ih",
			"lastModified": "2018-04-03T11:14:10Z",
			"packageLink": "http://api.govinfo.gov/packages/BILLS-115hr5083ih/summary"
		}, {
			"packageId": "BILLS-115hr5078ih",
			"lastModified": "2018-04-03T11:46:17Z",
			"packageLink": "http://api.govinfo.gov/packages/BILLS-115hr5078ih/summary"
		}, {
			"packageId": "BILLS-115hr5081ih",
			"lastModified": "2018-04-03T11:42:22Z",
			"packageLink": "http://api.govinfo.gov/packages/BILLS-115hr5081ih/summary"
		}, {
			"packageId": "BILLS-115hr4529rh",
			"lastModified": "2018-04-03T11:33:34Z",
			"packageLink": "http://api.govinfo.gov/packages/BILLS-115hr4529rh/summary"
		}, {
			"packageId": "BILLS-115hr5070ih",
			"lastModified": "2018-04-03T11:10:06Z",
			"packageLink": "http://api.govinfo.gov/packages/BILLS-115hr5070ih/summary"
		}, {
			"packageId": "BILLS-115hr4465rh",
			"lastModified": "2018-04-03T11:46:35Z",
			"packageLink": "http://api.govinfo.gov/packages/BILLS-115hr4465rh/summary"
		}, {
			"packageId": "BILLS-115hres742ih",
			"lastModified": "2018-04-03T11:38:15Z",
			"packageLink": "http://api.govinfo.gov/packages/BILLS-115hres742ih/summary"
		}, {
			"packageId": "BILLS-115s2246rfh",
			"lastModified": "2018-04-03T11:31:31Z",
			"packageLink": "http://api.govinfo.gov/packages/BILLS-115s2246rfh/summary"
		}, {
			"packageId": "BILLS-115hr1220rh",
			"lastModified": "2018-04-03T11:16:10Z",
			"packageLink": "http://api.govinfo.gov/packages/BILLS-115hr1220rh/summary"
		}, {
			"packageId": "BILLS-115hr3225rh",
			"lastModified": "2018-04-03T11:08:50Z",
			"packageLink": "http://api.govinfo.gov/packages/BILLS-115hr3225rh/summary"
		}, {
			"packageId": "BILLS-115hr5063ih",
			"lastModified": "2018-04-03T11:12:02Z",
			"packageLink": "http://api.govinfo.gov/packages/BILLS-115hr5063ih/summary"
		}, {
			"packageId": "BILLS-115sres411is",
			"lastModified": "2018-04-03T11:46:18Z",
			"packageLink": "http://api.govinfo.gov/packages/BILLS-115sres411is/summary"
		}, {
			"packageId": "BILLS-115hr5054ih",
			"lastModified": "2018-04-03T11:45:03Z",
			"packageLink": "http://api.govinfo.gov/packages/BILLS-115hr5054ih/summary"
		}, {
			"packageId": "BILLS-115s2436is",
			"lastModified": "2018-04-03T11:33:30Z",
			"packageLink": "http://api.govinfo.gov/packages/BILLS-115s2436is/summary"
		}, {
			"packageId": "BILLS-115hr5045ih",
			"lastModified": "2018-04-03T11:35:52Z",
			"packageLink": "http://api.govinfo.gov/packages/BILLS-115hr5045ih/summary"
		}, {
			"packageId": "BILLS-115hr294rs",
			"lastModified": "2018-04-03T11:38:17Z",
			"packageLink": "http://api.govinfo.gov/packages/BILLS-115hr294rs/summary"
		}, {
			"packageId": "BILLS-115hr3978rfs",
			"lastModified": "2018-04-03T11:30:54Z",
			"packageLink": "http://api.govinfo.gov/packages/BILLS-115hr3978rfs/summary"
		}, {
			"packageId": "BILLS-115hr5062ih",
			"lastModified": "2018-04-03T11:31:41Z",
			"packageLink": "http://api.govinfo.gov/packages/BILLS-115hr5062ih/summary"
		}, {
			"packageId": "BILLS-115hr2672rs",
			"lastModified": "2018-04-03T11:13:59Z",
			"packageLink": "http://api.govinfo.gov/packages/BILLS-115hr2672rs/summary"
		}, {
			"packageId": "BILLS-115sres412is",
			"lastModified": "2018-04-03T11:28:21Z",
			"packageLink": "http://api.govinfo.gov/packages/BILLS-115sres412is/summary"
		}, {
			"packageId": "BILLS-115hr1208rs",
			"lastModified": "2018-04-03T11:18:51Z",
			"packageLink": "http://api.govinfo.gov/packages/BILLS-115hr1208rs/summary"
		}, {
			"packageId": "BILLS-115hres744ih",
			"lastModified": "2018-04-03T11:21:47Z",
			"packageLink": "http://api.govinfo.gov/packages/BILLS-115hres744ih/summary"
		}, {
			"packageId": "BILLS-115hr5069ih",
			"lastModified": "2018-04-03T11:44:08Z",
			"packageLink": "http://api.govinfo.gov/packages/BILLS-115hr5069ih/summary"
		}, {
			"packageId": "BILLS-115hr5025ih",
			"lastModified": "2018-04-03T11:47:06Z",
			"packageLink": "http://api.govinfo.gov/packages/BILLS-115hr5025ih/summary"
		}, {
			"packageId": "BILLS-115hr5018ih",
			"lastModified": "2018-04-03T11:13:13Z",
			"packageLink": "http://api.govinfo.gov/packages/BILLS-115hr5018ih/summary"
		}, {
			"packageId": "BILLS-115hr4377rfs",
			"lastModified": "2018-04-03T11:16:30Z",
			"packageLink": "http://api.govinfo.gov/packages/BILLS-115hr4377rfs/summary"
		}, {
			"packageId": "BILLS-115hr5051ih",
			"lastModified": "2018-04-03T11:48:31Z",
			"packageLink": "http://api.govinfo.gov/packages/BILLS-115hr5051ih/summary"
		}, {
			"packageId": "BILLS-115hr5060ih",
			"lastModified": "2018-04-03T11:09:11Z",
			"packageLink": "http://api.govinfo.gov/packages/BILLS-115hr5060ih/summary"
		}, {
			"packageId": "BILLS-115s2446is",
			"lastModified": "2018-04-03T11:07:15Z",
			"packageLink": "http://api.govinfo.gov/packages/BILLS-115s2446is/summary"
		}, {
			"packageId": "BILLS-115sres408is",
			"lastModified": "2018-04-03T11:40:02Z",
			"packageLink": "http://api.govinfo.gov/packages/BILLS-115sres408is/summary"
		}, {
			"packageId": "BILLS-115hr5032ih",
			"lastModified": "2018-04-03T11:15:49Z",
			"packageLink": "http://api.govinfo.gov/packages/BILLS-115hr5032ih/summary"
		}, {
			"packageId": "BILLS-115hr5039ih",
			"lastModified": "2018-04-03T11:16:01Z",
			"packageLink": "http://api.govinfo.gov/packages/BILLS-115hr5039ih/summary"
		}, {
			"packageId": "BILLS-115hr5034ih",
			"lastModified": "2018-04-03T11:21:06Z",
			"packageLink": "http://api.govinfo.gov/packages/BILLS-115hr5034ih/summary"
		}, {
			"packageId": "BILLS-115hr5041ih",
			"lastModified": "2018-04-03T11:27:23Z",
			"packageLink": "http://api.govinfo.gov/packages/BILLS-115hr5041ih/summary"
		}, {
			"packageId": "BILLS-115s2440is",
			"lastModified": "2018-04-03T11:28:02Z",
			"packageLink": "http://api.govinfo.gov/packages/BILLS-115s2440is/summary"
		}, {
			"packageId": "BILLS-115hr5037ih",
			"lastModified": "2018-04-03T11:18:16Z",
			"packageLink": "http://api.govinfo.gov/packages/BILLS-115hr5037ih/summary"
		}, {
			"packageId": "BILLS-115s2433is",
			"lastModified": "2018-04-03T11:23:09Z",
			"packageLink": "http://api.govinfo.gov/packages/BILLS-115s2433is/summary"
		}, {
			"packageId": "BILLS-115hr5042ih",
			"lastModified": "2018-04-03T11:19:27Z",
			"packageLink": "http://api.govinfo.gov/packages/BILLS-115hr5042ih/summary"
		}, {
			"packageId": "BILLS-115hr5038ih",
			"lastModified": "2018-04-03T11:36:09Z",
			"packageLink": "http://api.govinfo.gov/packages/BILLS-115hr5038ih/summary"
		}, {
			"packageId": "BILLS-115s2441is",
			"lastModified": "2018-04-03T11:35:23Z",
			"packageLink": "http://api.govinfo.gov/packages/BILLS-115s2441is/summary"
		}, {
			"packageId": "BILLS-115s2431is",
			"lastModified": "2018-04-03T11:41:51Z",
			"packageLink": "http://api.govinfo.gov/packages/BILLS-115s2431is/summary"
		}, {
			"packageId": "BILLS-115hr1207rs",
			"lastModified": "2018-04-03T11:32:37Z",
			"packageLink": "http://api.govinfo.gov/packages/BILLS-115hr1207rs/summary"
		}, {
			"packageId": "BILLS-115hr5049ih",
			"lastModified": "2018-04-03T11:44:15Z",
			"packageLink": "http://api.govinfo.gov/packages/BILLS-115hr5049ih/summary"
		}, {
			"packageId": "BILLS-115s2418is",
			"lastModified": "2018-04-03T11:39:26Z",
			"packageLink": "http://api.govinfo.gov/packages/BILLS-115s2418is/summary"
		}, {
			"packageId": "BILLS-115hr5001ih",
			"lastModified": "2018-04-03T11:36:29Z",
			"packageLink": "http://api.govinfo.gov/packages/BILLS-115hr5001ih/summary"
		}, {
			"packageId": "BILLS-115hr4377eh",
			"lastModified": "2018-04-03T11:14:52Z",
			"packageLink": "http://api.govinfo.gov/packages/BILLS-115hr4377eh/summary"
		}, {
			"packageId": "BILLS-115s96enr",
			"lastModified": "2018-04-03T11:22:34Z",
			"packageLink": "http://api.govinfo.gov/packages/BILLS-115s96enr/summary"
		}, {
			"packageId": "BILLS-115hr3397eh",
			"lastModified": "2018-04-03T11:28:26Z",
			"packageLink": "http://api.govinfo.gov/packages/BILLS-115hr3397eh/summary"
		}, {
			"packageId": "BILLS-115hr3542eh",
			"lastModified": "2018-04-03T11:10:58Z",
			"packageLink": "http://api.govinfo.gov/packages/BILLS-115hr3542eh/summary"
		}, {
			"packageId": "BILLS-115s2427is",
			"lastModified": "2018-04-03T11:24:03Z",
			"packageLink": "http://api.govinfo.gov/packages/BILLS-115s2427is/summary"
		}, {
			"packageId": "BILLS-115hr5026ih",
			"lastModified": "2018-04-03T11:24:34Z",
			"packageLink": "http://api.govinfo.gov/packages/BILLS-115hr5026ih/summary"
		}, {
			"packageId": "BILLS-115hr5015ih",
			"lastModified": "2018-04-03T11:35:46Z",
			"packageLink": "http://api.govinfo.gov/packages/BILLS-115hr5015ih/summary"
		}, {
			"packageId": "BILLS-115hr5016ih",
			"lastModified": "2018-04-03T11:36:37Z",
			"packageLink": "http://api.govinfo.gov/packages/BILLS-115hr5016ih/summary"
		}, {
			"packageId": "BILLS-115hr5029ih",
			"lastModified": "2018-04-03T11:34:09Z",
			"packageLink": "http://api.govinfo.gov/packages/BILLS-115hr5029ih/summary"
		}, {
			"packageId": "BILLS-115s2286rs",
			"lastModified": "2018-04-03T11:31:12Z",
			"packageLink": "http://api.govinfo.gov/packages/BILLS-115s2286rs/summary"
		}, {
			"packageId": "BILLS-115hr1625rs",
			"lastModified": "2018-04-03T11:24:19Z",
			"packageLink": "http://api.govinfo.gov/packages/BILLS-115hr1625rs/summary"
		}, {
			"packageId": "BILLS-115s2415is",
			"lastModified": "2018-04-03T11:28:21Z",
			"packageLink": "http://api.govinfo.gov/packages/BILLS-115s2415is/summary"
		}, {
			"packageId": "BILLS-115hr4533eh",
			"lastModified": "2018-04-03T11:39:25Z",
			"packageLink": "http://api.govinfo.gov/packages/BILLS-115hr4533eh/summary"
		}, {
			"packageId": "BILLS-115sres405is",
			"lastModified": "2018-04-03T11:16:07Z",
			"packageLink": "http://api.govinfo.gov/packages/BILLS-115sres405is/summary"
		}, {
			"packageId": "BILLS-115hr5009ih",
			"lastModified": "2018-04-03T11:30:16Z",
			"packageLink": "http://api.govinfo.gov/packages/BILLS-115hr5009ih/summary"
		}, {
			"packageId": "BILLS-115sres404is",
			"lastModified": "2018-04-03T11:46:40Z",
			"packageLink": "http://api.govinfo.gov/packages/BILLS-115sres404is/summary"
		}, {
			"packageId": "BILLS-115hr4377rh",
			"lastModified": "2018-04-03T11:32:38Z",
			"packageLink": "http://api.govinfo.gov/packages/BILLS-115hr4377rh/summary"
		}, {
			"packageId": "BILLS-115hr5003ih",
			"lastModified": "2018-04-03T11:44:14Z",
			"packageLink": "http://api.govinfo.gov/packages/BILLS-115hr5003ih/summary"
		}, {
			"packageId": "BILLS-115sres403ats",
			"lastModified": "2018-04-03T11:21:35Z",
			"packageLink": "http://api.govinfo.gov/packages/BILLS-115sres403ats/summary"
		}, {
			"packageId": "BILLS-115hr535rs",
			"lastModified": "2018-04-03T11:20:08Z",
			"packageLink": "http://api.govinfo.gov/packages/BILLS-115hr535rs/summary"
		}, {
			"packageId": "BILLS-115hr1153rfs",
			"lastModified": "2018-04-03T11:37:31Z",
			"packageLink": "http://api.govinfo.gov/packages/BILLS-115hr1153rfs/summary"
		}, {
			"packageId": "BILLS-115hr1892enr",
			"lastModified": "2018-04-03T11:46:31Z",
			"packageLink": "http://api.govinfo.gov/packages/BILLS-115hr1892enr/summary"
		}, {
			"packageId": "BILLS-115s2410is",
			"lastModified": "2018-04-03T11:38:07Z",
			"packageLink": "http://api.govinfo.gov/packages/BILLS-115s2410is/summary"
		}, {
			"packageId": "BILLS-115hr4982ih",
			"lastModified": "2018-04-03T11:34:01Z",
			"packageLink": "http://api.govinfo.gov/packages/BILLS-115hr4982ih/summary"
		}, {
			"packageId": "BILLS-115hr4994ih",
			"lastModified": "2018-04-03T11:42:43Z",
			"packageLink": "http://api.govinfo.gov/packages/BILLS-115hr4994ih/summary"
		}, {
			"packageId": "BILLS-115s2404is",
			"lastModified": "2018-04-03T11:25:09Z",
			"packageLink": "http://api.govinfo.gov/packages/BILLS-115s2404is/summary"
		}, {
			"packageId": "BILLS-115hr4978ih",
			"lastModified": "2018-04-03T11:28:31Z",
			"packageLink": "http://api.govinfo.gov/packages/BILLS-115hr4978ih/summary"
		}, {
			"packageId": "BILLS-115s2412is",
			"lastModified": "2018-04-03T11:21:11Z",
			"packageLink": "http://api.govinfo.gov/packages/BILLS-115s2412is/summary"
		}, {
			"packageId": "BILLS-115s2402is",
			"lastModified": "2018-04-03T11:21:22Z",
			"packageLink": "http://api.govinfo.gov/packages/BILLS-115s2402is/summary"
		}, {
			"packageId": "BILLS-115hr4970ih",
			"lastModified": "2018-04-03T11:37:54Z",
			"packageLink": "http://api.govinfo.gov/packages/BILLS-115hr4970ih/summary"
		}, {
			"packageId": "BILLS-115s2391is",
			"lastModified": "2018-04-03T11:36:41Z",
			"packageLink": "http://api.govinfo.gov/packages/BILLS-115s2391is/summary"
		}, {
			"packageId": "BILLS-115s2398is",
			"lastModified": "2018-04-03T11:29:15Z",
			"packageLink": "http://api.govinfo.gov/packages/BILLS-115s2398is/summary"
		}, {
			"packageId": "BILLS-115hr1997eh",
			"lastModified": "2018-04-03T11:23:12Z",
			"packageLink": "http://api.govinfo.gov/packages/BILLS-115hr1997eh/summary"
		}, {
			"packageId": "BILLS-115hr4974ih",
			"lastModified": "2018-04-03T11:23:22Z",
			"packageLink": "http://api.govinfo.gov/packages/BILLS-115hr4974ih/summary"
		}, {
			"packageId": "BILLS-115s2408is",
			"lastModified": "2018-04-03T11:10:17Z",
			"packageLink": "http://api.govinfo.gov/packages/BILLS-115s2408is/summary"
		}, {
			"packageId": "BILLS-115hconres102enr",
			"lastModified": "2018-04-03T11:08:29Z",
			"packageLink": "http://api.govinfo.gov/packages/BILLS-115hconres102enr/summary"
		}, {
			"packageId": "BILLS-115hr4986ih",
			"lastModified": "2018-04-03T11:14:58Z",
			"packageLink": "http://api.govinfo.gov/packages/BILLS-115hr4986ih/summary"
		}, {
			"packageId": "BILLS-115s2405is",
			"lastModified": "2018-04-03T11:23:57Z",
			"packageLink": "http://api.govinfo.gov/packages/BILLS-115s2405is/summary"
		}, {
			"packageId": "BILLS-115hr4980ih",
			"lastModified": "2018-04-03T11:35:49Z",
			"packageLink": "http://api.govinfo.gov/packages/BILLS-115hr4980ih/summary"
		}, {
			"packageId": "BILLS-115hres735ih",
			"lastModified": "2018-04-03T11:43:20Z",
			"packageLink": "http://api.govinfo.gov/packages/BILLS-115hres735ih/summary"
		}
	]
}
