{
	"count": 197925,
	"message": null,
	"nextPage": "http://api.govinfo.gov/collections/BILLS/2018-01-01T00:00:00Z/?offset=100&pageSize=100",
	"previousPage": null,
	"packages": [{
			"packageId": "BILLS-115hr4403rh",
			"lastModified": "2018-04-17T06:51:38Z",
			"packageLink": "http://api.govinfo.gov/packages/BILLS-115hr4403rh/summary"
		}, {
			"packageId": "BILLS-115hr5503ih",
			"lastModified": "2018-04-14T04:00:56Z",
			"packageLink": "http://api.govinfo.gov/packages/BILLS-115hr5503ih/summary"
		}, {
			"packageId": "BILLS-115hr1625enr",
			"lastModified": "2018-04-14T00:38:24Z",
			"packageLink": "http://api.govinfo.gov/packages/BILLS-115hr1625enr/summary"
		}, {
			"packageId": "BILLS-115hr4293rfs",
			"lastModified": "2018-04-14T00:47:11Z",
			"packageLink": "http://api.govinfo.gov/packages/BILLS-115hr4293rfs/summary"
		}, {
			"packageId": "BILLS-115hr5491ih",
			"lastModified": "2018-04-14T09:44:52Z",
			"packageLink": "http://api.govinfo.gov/packages/BILLS-115hr5491ih/summary"
		}, {
			"packageId": "BILLS-115hres828ih",
			"lastModified": "2018-04-14T04:00:55Z",
			"packageLink": "http://api.govinfo.gov/packages/BILLS-115hres828ih/summary"
		}, {
			"packageId": "BILLS-115hres826ih",
			"lastModified": "2018-04-14T04:00:59Z",
			"packageLink": "http://api.govinfo.gov/packages/BILLS-115hres826ih/summary"
		}, {
			"packageId": "BILLS-115hr5472ih",
			"lastModified": "2018-04-14T09:44:49Z",
			"packageLink": "http://api.govinfo.gov/packages/BILLS-115hr5472ih/summary"
		}, {
			"packageId": "BILLS-115hr5474ih",
			"lastModified": "2018-04-14T09:44:50Z",
			"packageLink": "http://api.govinfo.gov/packages/BILLS-115hr5474ih/summary"
		}, {
			"packageId": "BILLS-115s2648is",
			"lastModified": "2018-04-17T02:08:28Z",
			"packageLink": "http://api.govinfo.gov/packages/BILLS-115s2648is/summary"
		}, {
			"packageId": "BILLS-115hr5477ih",
			"lastModified": "2018-04-17T04:01:13Z",
			"packageLink": "http://api.govinfo.gov/packages/BILLS-115hr5477ih/summary"
		}, {
			"packageId": "BILLS-115hr2ih",
			"lastModified": "2018-04-13T11:30:29Z",
			"packageLink": "http://api.govinfo.gov/packages/BILLS-115hr2ih/summary"
		}, {
			"packageId": "BILLS-115hr5484ih",
			"lastModified": "2018-04-14T09:44:39Z",
			"packageLink": "http://api.govinfo.gov/packages/BILLS-115hr5484ih/summary"
		}, {
			"packageId": "BILLS-115hr5492ih",
			"lastModified": "2018-04-14T09:44:47Z",
			"packageLink": "http://api.govinfo.gov/packages/BILLS-115hr5492ih/summary"
		}, {
			"packageId": "BILLS-115hr5448ih",
			"lastModified": "2018-04-11T10:49:51Z",
			"packageLink": "http://api.govinfo.gov/packages/BILLS-115hr5448ih/summary"
		}, {
			"packageId": "BILLS-115hr5450ih",
			"lastModified": "2018-04-11T10:50:01Z",
			"packageLink": "http://api.govinfo.gov/packages/BILLS-115hr5450ih/summary"
		}, {
			"packageId": "BILLS-115hres128eh",
			"lastModified": "2018-04-12T02:16:54Z",
			"packageLink": "http://api.govinfo.gov/packages/BILLS-115hres128eh/summary"
		}, {
			"packageId": "BILLS-115hr5458ih",
			"lastModified": "2018-04-12T04:04:25Z",
			"packageLink": "http://api.govinfo.gov/packages/BILLS-115hr5458ih/summary"
		}, {
			"packageId": "BILLS-115hr4921eh",
			"lastModified": "2018-04-12T02:15:40Z",
			"packageLink": "http://api.govinfo.gov/packages/BILLS-115hr4921eh/summary"
		}, {
			"packageId": "BILLS-115hr5460ih",
			"lastModified": "2018-04-13T11:30:23Z",
			"packageLink": "http://api.govinfo.gov/packages/BILLS-115hr5460ih/summary"
		}, {
			"packageId": "BILLS-115hres821ih",
			"lastModified": "2018-04-12T08:22:47Z",
			"packageLink": "http://api.govinfo.gov/packages/BILLS-115hres821ih/summary"
		}, {
			"packageId": "BILLS-115hr2615rs",
			"lastModified": "2018-04-13T01:56:32Z",
			"packageLink": "http://api.govinfo.gov/packages/BILLS-115hr2615rs/summary"
		}, {
			"packageId": "BILLS-115s1181rs",
			"lastModified": "2018-04-13T02:01:32Z",
			"packageLink": "http://api.govinfo.gov/packages/BILLS-115s1181rs/summary"
		}, {
			"packageId": "BILLS-115sres458ats",
			"lastModified": "2018-04-13T02:06:44Z",
			"packageLink": "http://api.govinfo.gov/packages/BILLS-115sres458ats/summary"
		}, {
			"packageId": "BILLS-115hres816eh",
			"lastModified": "2018-04-13T02:00:33Z",
			"packageLink": "http://api.govinfo.gov/packages/BILLS-115hres816eh/summary"
		}, {
			"packageId": "BILLS-115hr5467ih",
			"lastModified": "2018-04-14T04:01:01Z",
			"packageLink": "http://api.govinfo.gov/packages/BILLS-115hr5467ih/summary"
		}, {
			"packageId": "BILLS-115hr5466ih",
			"lastModified": "2018-04-14T04:01:05Z",
			"packageLink": "http://api.govinfo.gov/packages/BILLS-115hr5466ih/summary"
		}, {
			"packageId": "BILLS-115s2645is",
			"lastModified": "2018-04-14T00:46:55Z",
			"packageLink": "http://api.govinfo.gov/packages/BILLS-115s2645is/summary"
		}, {
			"packageId": "BILLS-115hr5470ih",
			"lastModified": "2018-04-14T09:12:56Z",
			"packageLink": "http://api.govinfo.gov/packages/BILLS-115hr5470ih/summary"
		}, {
			"packageId": "BILLS-115hr5468ih",
			"lastModified": "2018-04-17T04:01:15Z",
			"packageLink": "http://api.govinfo.gov/packages/BILLS-115hr5468ih/summary"
		}, {
			"packageId": "BILLS-115hr5438ih",
			"lastModified": "2018-04-10T20:28:13Z",
			"packageLink": "http://api.govinfo.gov/packages/BILLS-115hr5438ih/summary"
		}, {
			"packageId": "BILLS-115sres452is",
			"lastModified": "2018-04-11T00:59:08Z",
			"packageLink": "http://api.govinfo.gov/packages/BILLS-115sres452is/summary"
		}, {
			"packageId": "BILLS-115s2632is",
			"lastModified": "2018-04-12T02:17:50Z",
			"packageLink": "http://api.govinfo.gov/packages/BILLS-115s2632is/summary"
		}, {
			"packageId": "BILLS-115hr5447ih",
			"lastModified": "2018-04-11T07:11:26Z",
			"packageLink": "http://api.govinfo.gov/packages/BILLS-115hr5447ih/summary"
		}, {
			"packageId": "BILLS-115hr2219eh",
			"lastModified": "2018-04-12T02:13:13Z",
			"packageLink": "http://api.govinfo.gov/packages/BILLS-115hr2219eh/summary"
		}, {
			"packageId": "BILLS-115hr5446ih",
			"lastModified": "2018-04-12T04:04:36Z",
			"packageLink": "http://api.govinfo.gov/packages/BILLS-115hr5446ih/summary"
		}, {
			"packageId": "BILLS-115hr5454ih",
			"lastModified": "2018-04-12T08:22:46Z",
			"packageLink": "http://api.govinfo.gov/packages/BILLS-115hr5454ih/summary"
		}, {
			"packageId": "BILLS-115hr5462ih",
			"lastModified": "2018-04-13T11:30:30Z",
			"packageLink": "http://api.govinfo.gov/packages/BILLS-115hr5462ih/summary"
		}, {
			"packageId": "BILLS-115s2643is",
			"lastModified": "2018-04-14T00:46:49Z",
			"packageLink": "http://api.govinfo.gov/packages/BILLS-115s2643is/summary"
		}, {
			"packageId": "BILLS-115s2638is",
			"lastModified": "2018-04-14T00:46:55Z",
			"packageLink": "http://api.govinfo.gov/packages/BILLS-115s2638is/summary"
		}, {
			"packageId": "BILLS-115hr5442ih",
			"lastModified": "2018-04-10T20:28:48Z",
			"packageLink": "http://api.govinfo.gov/packages/BILLS-115hr5442ih/summary"
		}, {
			"packageId": "BILLS-115hr5439ih",
			"lastModified": "2018-04-10T20:28:51Z",
			"packageLink": "http://api.govinfo.gov/packages/BILLS-115hr5439ih/summary"
		}, {
			"packageId": "BILLS-115hr5133rh",
			"lastModified": "2018-04-10T20:28:43Z",
			"packageLink": "http://api.govinfo.gov/packages/BILLS-115hr5133rh/summary"
		}, {
			"packageId": "BILLS-115hr5441ih",
			"lastModified": "2018-04-10T20:28:13Z",
			"packageLink": "http://api.govinfo.gov/packages/BILLS-115hr5441ih/summary"
		}, {
			"packageId": "BILLS-115hr4609rh",
			"lastModified": "2018-04-10T20:28:13Z",
			"packageLink": "http://api.govinfo.gov/packages/BILLS-115hr4609rh/summary"
		}, {
			"packageId": "BILLS-115s1870rs",
			"lastModified": "2018-04-11T01:00:26Z",
			"packageLink": "http://api.govinfo.gov/packages/BILLS-115s1870rs/summary"
		}, {
			"packageId": "BILLS-115s2629pcs",
			"lastModified": "2018-04-11T01:00:33Z",
			"packageLink": "http://api.govinfo.gov/packages/BILLS-115s2629pcs/summary"
		}, {
			"packageId": "BILLS-115sres432ats",
			"lastModified": "2018-04-11T00:59:06Z",
			"packageLink": "http://api.govinfo.gov/packages/BILLS-115sres432ats/summary"
		}, {
			"packageId": "BILLS-115hr5430ih",
			"lastModified": "2018-04-06T05:19:11Z",
			"packageLink": "http://api.govinfo.gov/packages/BILLS-115hr5430ih/summary"
		}, {
			"packageId": "BILLS-115hr4790rh",
			"lastModified": "2018-04-06T04:25:32Z",
			"packageLink": "http://api.govinfo.gov/packages/BILLS-115hr4790rh/summary"
		}, {
			"packageId": "BILLS-115hr5436ih",
			"lastModified": "2018-04-06T04:25:45Z",
			"packageLink": "http://api.govinfo.gov/packages/BILLS-115hr5436ih/summary"
		}, {
			"packageId": "BILLS-115hr3179rh",
			"lastModified": "2018-04-06T04:26:06Z",
			"packageLink": "http://api.govinfo.gov/packages/BILLS-115hr3179rh/summary"
		}, {
			"packageId": "BILLS-115hr5432ih",
			"lastModified": "2018-04-06T04:25:49Z",
			"packageLink": "http://api.govinfo.gov/packages/BILLS-115hr5432ih/summary"
		}, {
			"packageId": "BILLS-115hr5434ih",
			"lastModified": "2018-04-07T06:32:42Z",
			"packageLink": "http://api.govinfo.gov/packages/BILLS-115hr5434ih/summary"
		}, {
			"packageId": "BILLS-115hr5431ih",
			"lastModified": "2018-04-06T04:25:31Z",
			"packageLink": "http://api.govinfo.gov/packages/BILLS-115hr5431ih/summary"
		}, {
			"packageId": "BILLS-115hr5424ih",
			"lastModified": "2018-04-05T13:04:18Z",
			"packageLink": "http://api.govinfo.gov/packages/BILLS-115hr5424ih/summary"
		}, {
			"packageId": "BILLS-115hr5417ih",
			"lastModified": "2018-04-05T13:04:19Z",
			"packageLink": "http://api.govinfo.gov/packages/BILLS-115hr5417ih/summary"
		}, {
			"packageId": "BILLS-115hr5422ih",
			"lastModified": "2018-04-05T13:04:20Z",
			"packageLink": "http://api.govinfo.gov/packages/BILLS-115hr5422ih/summary"
		}, {
			"packageId": "BILLS-115s943rfh",
			"lastModified": "2018-04-03T11:34:12Z",
			"packageLink": "http://api.govinfo.gov/packages/BILLS-115s943rfh/summary"
		}, {
			"packageId": "BILLS-115hr5415ih",
			"lastModified": "2018-04-05T13:04:08Z",
			"packageLink": "http://api.govinfo.gov/packages/BILLS-115hr5415ih/summary"
		}, {
			"packageId": "BILLS-115s607rfh",
			"lastModified": "2018-04-03T11:35:54Z",
			"packageLink": "http://api.govinfo.gov/packages/BILLS-115s607rfh/summary"
		}, {
			"packageId": "BILLS-115hres807ih",
			"lastModified": "2018-04-03T11:07:37Z",
			"packageLink": "http://api.govinfo.gov/packages/BILLS-115hres807ih/summary"
		}, {
			"packageId": "BILLS-115sres443is",
			"lastModified": "2018-04-03T11:09:55Z",
			"packageLink": "http://api.govinfo.gov/packages/BILLS-115sres443is/summary"
		}, {
			"packageId": "BILLS-115s943es",
			"lastModified": "2018-04-03T11:37:37Z",
			"packageLink": "http://api.govinfo.gov/packages/BILLS-115s943es/summary"
		}, {
			"packageId": "BILLS-115hres801ih",
			"lastModified": "2018-04-03T11:32:45Z",
			"packageLink": "http://api.govinfo.gov/packages/BILLS-115hres801ih/summary"
		}, {
			"packageId": "BILLS-115sres445ats",
			"lastModified": "2018-04-03T11:25:51Z",
			"packageLink": "http://api.govinfo.gov/packages/BILLS-115sres445ats/summary"
		}, {
			"packageId": "BILLS-115hres800ih",
			"lastModified": "2018-04-03T11:12:17Z",
			"packageLink": "http://api.govinfo.gov/packages/BILLS-115hres800ih/summary"
		}, {
			"packageId": "BILLS-115s466rh",
			"lastModified": "2018-04-03T11:19:07Z",
			"packageLink": "http://api.govinfo.gov/packages/BILLS-115s466rh/summary"
		}, {
			"packageId": "BILLS-115s2625is",
			"lastModified": "2018-04-05T13:04:16Z",
			"packageLink": "http://api.govinfo.gov/packages/BILLS-115s2625is/summary"
		}, {
			"packageId": "BILLS-115s2608is",
			"lastModified": "2018-04-05T13:03:59Z",
			"packageLink": "http://api.govinfo.gov/packages/BILLS-115s2608is/summary"
		}, {
			"packageId": "BILLS-115hr5399ih",
			"lastModified": "2018-04-05T13:04:05Z",
			"packageLink": "http://api.govinfo.gov/packages/BILLS-115hr5399ih/summary"
		}, {
			"packageId": "BILLS-115hr5381ih",
			"lastModified": "2018-04-05T13:03:48Z",
			"packageLink": "http://api.govinfo.gov/packages/BILLS-115hr5381ih/summary"
		}, {
			"packageId": "BILLS-115hr5397ih",
			"lastModified": "2018-04-05T13:03:56Z",
			"packageLink": "http://api.govinfo.gov/packages/BILLS-115hr5397ih/summary"
		}, {
			"packageId": "BILLS-115s2618is",
			"lastModified": "2018-04-05T13:04:21Z",
			"packageLink": "http://api.govinfo.gov/packages/BILLS-115s2618is/summary"
		}, {
			"packageId": "BILLS-115s2612is",
			"lastModified": "2018-04-05T13:04:21Z",
			"packageLink": "http://api.govinfo.gov/packages/BILLS-115s2612is/summary"
		}, {
			"packageId": "BILLS-115hr5384ih",
			"lastModified": "2018-04-06T04:25:40Z",
			"packageLink": "http://api.govinfo.gov/packages/BILLS-115hr5384ih/summary"
		}, {
			"packageId": "BILLS-115s2621is",
			"lastModified": "2018-04-11T01:00:23Z",
			"packageLink": "http://api.govinfo.gov/packages/BILLS-115s2621is/summary"
		}, {
			"packageId": "BILLS-115s2581is",
			"lastModified": "2018-04-05T13:04:01Z",
			"packageLink": "http://api.govinfo.gov/packages/BILLS-115s2581is/summary"
		}, {
			"packageId": "BILLS-115hres804ih",
			"lastModified": "2018-04-03T11:09:59Z",
			"packageLink": "http://api.govinfo.gov/packages/BILLS-115hres804ih/summary"
		}, {
			"packageId": "BILLS-115sres451is",
			"lastModified": "2018-04-03T11:21:15Z",
			"packageLink": "http://api.govinfo.gov/packages/BILLS-115sres451is/summary"
		}, {
			"packageId": "BILLS-115hr4851eas",
			"lastModified": "2018-04-03T11:21:50Z",
			"packageLink": "http://api.govinfo.gov/packages/BILLS-115hr4851eas/summary"
		}, {
			"packageId": "BILLS-115s2040enr",
			"lastModified": "2018-04-03T11:27:09Z",
			"packageLink": "http://api.govinfo.gov/packages/BILLS-115s2040enr/summary"
		}, {
			"packageId": "BILLS-115s374rs",
			"lastModified": "2018-04-03T11:18:50Z",
			"packageLink": "http://api.govinfo.gov/packages/BILLS-115s374rs/summary"
		}, {
			"packageId": "BILLS-115hr4467rfs",
			"lastModified": "2018-04-03T11:19:42Z",
			"packageLink": "http://api.govinfo.gov/packages/BILLS-115hr4467rfs/summary"
		}, {
			"packageId": "BILLS-115hres798ih",
			"lastModified": "2018-04-03T11:19:19Z",
			"packageLink": "http://api.govinfo.gov/packages/BILLS-115hres798ih/summary"
		}, {
			"packageId": "BILLS-115s2630is",
			"lastModified": "2018-04-05T13:03:58Z",
			"packageLink": "http://api.govinfo.gov/packages/BILLS-115s2630is/summary"
		}, {
			"packageId": "BILLS-115s2622is",
			"lastModified": "2018-04-05T13:04:00Z",
			"packageLink": "http://api.govinfo.gov/packages/BILLS-115s2622is/summary"
		}, {
			"packageId": "BILLS-115s2616is",
			"lastModified": "2018-04-05T13:04:02Z",
			"packageLink": "http://api.govinfo.gov/packages/BILLS-115s2616is/summary"
		}, {
			"packageId": "BILLS-115hr5404ih",
			"lastModified": "2018-04-05T13:04:05Z",
			"packageLink": "http://api.govinfo.gov/packages/BILLS-115hr5404ih/summary"
		}, {
			"packageId": "BILLS-115hr5403ih",
			"lastModified": "2018-04-05T13:04:06Z",
			"packageLink": "http://api.govinfo.gov/packages/BILLS-115hr5403ih/summary"
		}, {
			"packageId": "BILLS-115hr5406ih",
			"lastModified": "2018-04-05T13:04:07Z",
			"packageLink": "http://api.govinfo.gov/packages/BILLS-115hr5406ih/summary"
		}, {
			"packageId": "BILLS-115hr5402ih",
			"lastModified": "2018-04-05T13:04:11Z",
			"packageLink": "http://api.govinfo.gov/packages/BILLS-115hr5402ih/summary"
		}, {
			"packageId": "BILLS-115hr5387ih",
			"lastModified": "2018-04-05T13:04:13Z",
			"packageLink": "http://api.govinfo.gov/packages/BILLS-115hr5387ih/summary"
		}, {
			"packageId": "BILLS-115s2626is",
			"lastModified": "2018-04-05T13:04:16Z",
			"packageLink": "http://api.govinfo.gov/packages/BILLS-115s2626is/summary"
		}, {
			"packageId": "BILLS-115s2614is",
			"lastModified": "2018-04-05T13:04:21Z",
			"packageLink": "http://api.govinfo.gov/packages/BILLS-115s2614is/summary"
		}, {
			"packageId": "BILLS-115hr4176rfs",
			"lastModified": "2018-04-03T11:26:11Z",
			"packageLink": "http://api.govinfo.gov/packages/BILLS-115hr4176rfs/summary"
		}, {
			"packageId": "BILLS-115hr5339ih",
			"lastModified": "2018-04-05T13:04:12Z",
			"packageLink": "http://api.govinfo.gov/packages/BILLS-115hr5339ih/summary"
		}, {
			"packageId": "BILLS-115hr5340ih",
			"lastModified": "2018-04-05T13:04:13Z",
			"packageLink": "http://api.govinfo.gov/packages/BILLS-115hr5340ih/summary"
		}, {
			"packageId": "BILLS-115hr5341ih",
			"lastModified": "2018-04-05T13:03:36Z",
			"packageLink": "http://api.govinfo.gov/packages/BILLS-115hr5341ih/summary"
		}, {
			"packageId": "BILLS-115hr5350ih",
			"lastModified": "2018-04-05T13:03:47Z",
			"packageLink": "http://api.govinfo.gov/packages/BILLS-115hr5350ih/summary"
		}
	]
}
