{"count":4228,"message":null,"nextPage":"http://api.govinfo.gov/collections/CREC/2018-04-01T00:00:00Z/2018-04-17T23:59:59Z?offset=10&pageSize=10","previousPage":null,"packages":[{"packageId":"CREC-2018-04-02","lastModified":"2018-04-05T13:04:12Z","packageLink":"http://api.govinfo.gov/packages/CREC-2018-04-02/summary"},{"packageId":"CREC-2018-03-15","lastModified":"2018-04-05T13:05:13Z","packageLink":"http://api.govinfo.gov/packages/CREC-2018-03-15/summary"},{"packageId":"CREC-2018-03-14","lastModified":"2018-04-03T15:54:57Z","packageLink":"http://api.govinfo.gov/packages/CREC-2018-03-14/summary"},{"packageId":"CREC-2018-02-14","lastModified":"2018-04-03T16:37:48Z","packageLink":"http://api.govinfo.gov/packages/CREC-2018-02-14/summary"},{"packageId":"CREC-2018-04-11","lastModified":"2018-04-12T11:24:32Z","packageLink":"http://api.govinfo.gov/packages/CREC-2018-04-11/summary"},{"packageId":"CREC-2018-03-29","lastModified":"2018-04-05T13:04:04Z","packageLink":"http://api.govinfo.gov/packages/CREC-2018-03-29/summary"},{"packageId":"CREC-2018-03-09","lastModified":"2018-04-03T16:34:31Z","packageLink":"http://api.govinfo.gov/packages/CREC-2018-03-09/summary"},{"packageId":"CREC-2018-03-05","lastModified":"2018-04-03T16:37:16Z","packageLink":"http://api.govinfo.gov/packages/CREC-2018-03-05/summary"},{"packageId":"CREC-2018-02-26","lastModified":"2018-04-03T16:32:47Z","packageLink":"http://api.govinfo.gov/packages/CREC-2018-02-26/summary"},{"packageId":"CREC-2018-02-20","lastModified":"2018-04-03T16:02:18Z","packageLink":"http://api.govinfo.gov/packages/CREC-2018-02-20/summary"}]}