{"count":1066616,"message":null,"nextPage":"http://api.govinfo.gov/collections/USCOURTS/2018-04-03T00:00:00Z?offset=25&pageSize=25","previousPage":null,"packages":[{"packageId":"USCOURTS-cand-3_17-cv-06884","lastModified":"2018-04-17T19:53:27Z","packageLink":"http://api.govinfo.gov/packages/USCOURTS-cand-3_17-cv-06884/summary"},{"packageId":"USCOURTS-ilnd-1_17-cv-08343","lastModified":"2018-04-17T19:55:07Z","packageLink":"http://api.govinfo.gov/packages/USCOURTS-ilnd-1_17-cv-08343/summary"},{"packageId":"USCOURTS-cand-4_17-cv-06036","lastModified":"2018-04-17T19:55:54Z","packageLink":"http://api.govinfo.gov/packages/USCOURTS-cand-4_17-cv-06036/summary"},{"packageId":"USCOURTS-ca4-17-07510","lastModified":"2018-04-17T19:34:30Z","packageLink":"http://api.govinfo.gov/packages/USCOURTS-ca4-17-07510/summary"},{"packageId":"USCOURTS-ca5-17-30484","lastModified":"2018-04-17T19:34:31Z","packageLink":"http://api.govinfo.gov/packages/USCOURTS-ca5-17-30484/summary"},{"packageId":"USCOURTS-ca5-17-40107","lastModified":"2018-04-17T19:35:36Z","packageLink":"http://api.govinfo.gov/packages/USCOURTS-ca5-17-40107/summary"},{"packageId":"USCOURTS-cand-5_17-cv-05021","lastModified":"2018-04-17T19:54:16Z","packageLink":"http://api.govinfo.gov/packages/USCOURTS-cand-5_17-cv-05021/summary"},{"packageId":"USCOURTS-ca5-16-51361","lastModified":"2018-04-17T19:34:46Z","packageLink":"http://api.govinfo.gov/packages/USCOURTS-ca5-16-51361/summary"},{"packageId":"USCOURTS-cand-5_17-cv-03805","lastModified":"2018-04-17T19:58:08Z","packageLink":"http://api.govinfo.gov/packages/USCOURTS-cand-5_17-cv-03805/summary"},{"packageId":"USCOURTS-ctd-3_15-cv-01215","lastModified":"2018-04-16T13:45:56Z","packageLink":"http://api.govinfo.gov/packages/USCOURTS-ctd-3_15-cv-01215/summary"},{"packageId":"USCOURTS-ca5-16-31067","lastModified":"2018-04-16T13:12:01Z","packageLink":"http://api.govinfo.gov/packages/USCOURTS-ca5-16-31067/summary"},{"packageId":"USCOURTS-ca11-17-14314","lastModified":"2018-04-16T13:12:01Z","packageLink":"http://api.govinfo.gov/packages/USCOURTS-ca11-17-14314/summary"},{"packageId":"USCOURTS-ca11-17-11923","lastModified":"2018-04-16T13:12:10Z","packageLink":"http://api.govinfo.gov/packages/USCOURTS-ca11-17-11923/summary"},{"packageId":"USCOURTS-cod-1_18-cv-00842","lastModified":"2018-04-16T13:15:52Z","packageLink":"http://api.govinfo.gov/packages/USCOURTS-cod-1_18-cv-00842/summary"},{"packageId":"USCOURTS-cand-3_16-cv-02787","lastModified":"2018-04-16T13:22:57Z","packageLink":"http://api.govinfo.gov/packages/USCOURTS-cand-3_16-cv-02787/summary"},{"packageId":"USCOURTS-ca10-17-02215","lastModified":"2018-04-16T13:23:02Z","packageLink":"http://api.govinfo.gov/packages/USCOURTS-ca10-17-02215/summary"},{"packageId":"USCOURTS-dcd-1_17-cv-02580","lastModified":"2018-04-16T13:23:07Z","packageLink":"http://api.govinfo.gov/packages/USCOURTS-dcd-1_17-cv-02580/summary"},{"packageId":"USCOURTS-nynd-5_06-cv-01042","lastModified":"2018-04-16T13:19:14Z","packageLink":"http://api.govinfo.gov/packages/USCOURTS-nynd-5_06-cv-01042/summary"},{"packageId":"USCOURTS-wvnd-3_16-cv-00161","lastModified":"2018-04-16T13:17:30Z","packageLink":"http://api.govinfo.gov/packages/USCOURTS-wvnd-3_16-cv-00161/summary"},{"packageId":"USCOURTS-wvnd-1_18-cr-00003","lastModified":"2018-04-16T13:17:40Z","packageLink":"http://api.govinfo.gov/packages/USCOURTS-wvnd-1_18-cr-00003/summary"},{"packageId":"USCOURTS-ilnd-1_14-cv-00916","lastModified":"2018-04-16T13:18:37Z","packageLink":"http://api.govinfo.gov/packages/USCOURTS-ilnd-1_14-cv-00916/summary"},{"packageId":"USCOURTS-ohnd-3_18-cr-00136","lastModified":"2018-04-16T13:18:56Z","packageLink":"http://api.govinfo.gov/packages/USCOURTS-ohnd-3_18-cr-00136/summary"},{"packageId":"USCOURTS-txsd-2_16-cv-00539","lastModified":"2018-04-16T13:18:56Z","packageLink":"http://api.govinfo.gov/packages/USCOURTS-txsd-2_16-cv-00539/summary"},{"packageId":"USCOURTS-ned-8_18-cr-00056","lastModified":"2018-04-16T13:18:57Z","packageLink":"http://api.govinfo.gov/packages/USCOURTS-ned-8_18-cr-00056/summary"},{"packageId":"USCOURTS-cand-3_17-cv-03702","lastModified":"2018-04-16T13:19:45Z","packageLink":"http://api.govinfo.gov/packages/USCOURTS-cand-3_17-cv-03702/summary"}]}